(Gen. 0) BestSol = Solution: cost=[-3659700.0], HP=[358.0], LP=[2700.0], P=[770.0], size=[1004]
(Gen. 3) BestSol = Solution: cost=[-3606998.0], HP=[353.0], LP=[2698.0], P=[743.0], size=[1004]
Time = 1.623 seg
(Gen. 4) BestSol = Solution: cost=[-3587602.0], HP=[351.0], LP=[2702.0], P=[749.0], size=[1004]
Time = 2.082 seg
(Gen. 6) BestSol = Solution: cost=[-3576291.0], HP=[350.0], LP=[2791.0], P=[735.0], size=[1004]
Time = 2.896 seg
(Gen. 7) BestSol = Solution: cost=[-3487549.0], HP=[341.0], LP=[2949.0], P=[746.0], size=[1004]
Time = 3.319 seg
(Gen. 8) BestSol = Solution: cost=[-3459345.0], HP=[338.0], LP=[2745.0], P=[766.0], size=[1004]
Time = 3.742 seg
(Gen. 10) BestSol = Solution: cost=[-3448140.0], HP=[337.0], LP=[2840.0], P=[753.0], size=[1004]
Time = 4.565 seg
(Gen. 14) BestSol = Solution: cost=[-3406933.0], HP=[333.0], LP=[2933.0], P=[740.0], size=[1004]
Time = 6.249 seg
(Gen. 34) BestSol = Solution: cost=[-3346860.0], HP=[327.0], LP=[2960.0], P=[739.0], size=[1004]
Time = 14.532 seg
(Gen. 115) BestSol = Solution: cost=[-3307144.0], HP=[323.0], LP=[2944.0], P=[742.0], size=[1004]
Time = 48.159 seg
(Gen. 165) BestSol = Solution: cost=[-3198655.0], HP=[312.0], LP=[2955.0], P=[757.0], size=[1004]
Time = 68.843 seg
(Gen. 172) BestSol = Solution: cost=[-3149325.0], HP=[307.0], LP=[2925.0], P=[764.0], size=[1004]
Time = 71.796 seg
(Gen. 206) BestSol = Solution: cost=[-3130397.0], HP=[305.0], LP=[2897.0], P=[775.0], size=[1004]
Time = 85.867 seg
(Gen. 215) BestSol = Solution: cost=[-3089166.0], HP=[301.0], LP=[2866.0], P=[763.0], size=[1004]
Time = 89.642 seg
(Gen. 229) BestSol = Solution: cost=[-3058720.0], HP=[298.0], LP=[2920.0], P=[758.0], size=[1004]
Time = 95.416 seg
(Gen. 233) BestSol = Solution: cost=[-2968719.0], HP=[289.0], LP=[2919.0], P=[758.0], size=[1004]
Time = 97.134 seg
(Gen. 358) BestSol = Solution: cost=[-2958486.0], HP=[288.0], LP=[2886.0], P=[756.0], size=[1004]
Time = 148.691 seg
(Gen. 368) BestSol = Solution: cost=[-2868652.0], HP=[279.0], LP=[2852.0], P=[758.0], size=[1004]
Time = 152.841 seg
(Gen. 486) BestSol = Solution: cost=[-2848103.0], HP=[277.0], LP=[2803.0], P=[753.0], size=[1004]
Time = 201.568 seg
(Gen. 596) BestSol = Solution: cost=[-2738150.0], HP=[266.0], LP=[2750.0], P=[754.0], size=[1004]
Time = 248.304 seg
(Gen. 618) BestSol = Solution: cost=[-2688514.0], HP=[261.0], LP=[2714.0], P=[758.0], size=[1004]
Time = 258.241 seg
