(Gen. 0) BestSol = Solution: cost=[-3215336.0], HP=[314.0], LP=[636.0], P=[747.0], size=[875]
(Gen. 1) BestSol = Solution: cost=[-3185146.0], HP=[311.0], LP=[646.0], P=[745.0], size=[875]
Time = 0.188 seg
(Gen. 4) BestSol = Solution: cost=[-3166345.0], HP=[309.0], LP=[645.0], P=[757.0], size=[875]
Time = 0.617 seg
(Gen. 7) BestSol = Solution: cost=[-3035225.0], HP=[296.0], LP=[625.0], P=[746.0], size=[875]
Time = 1.06 seg
(Gen. 8) BestSol = Solution: cost=[-2777241.0], HP=[270.0], LP=[641.0], P=[766.0], size=[875]
Time = 1.207 seg
(Gen. 18) BestSol = Solution: cost=[-2587248.0], HP=[251.0], LP=[648.0], P=[766.0], size=[875]
Time = 2.655 seg
(Gen. 27) BestSol = Solution: cost=[-2586643.0], HP=[251.0], LP=[643.0], P=[760.0], size=[875]
Time = 3.966 seg
(Gen. 106) BestSol = Solution: cost=[-2556439.0], HP=[248.0], LP=[639.0], P=[758.0], size=[875]
Time = 15.418 seg
(Gen. 120) BestSol = Solution: cost=[-2555751.0], HP=[248.0], LP=[651.0], P=[751.0], size=[875]
Time = 17.485 seg
(Gen. 125) BestSol = Solution: cost=[-2525659.0], HP=[245.0], LP=[659.0], P=[750.0], size=[875]
Time = 18.229 seg
(Gen. 133) BestSol = Solution: cost=[-2395458.0], HP=[232.0], LP=[658.0], P=[748.0], size=[875]
Time = 19.403 seg
(Gen. 144) BestSol = Solution: cost=[-2307151.0], HP=[223.0], LP=[651.0], P=[765.0], size=[875]
Time = 21.048 seg
(Gen. 151) BestSol = Solution: cost=[-2297642.0], HP=[222.0], LP=[642.0], P=[770.0], size=[875]
Time = 22.105 seg
(Gen. 171) BestSol = Solution: cost=[-2278445.0], HP=[220.0], LP=[645.0], P=[778.0], size=[875]
Time = 25.016 seg
(Gen. 213) BestSol = Solution: cost=[-2268440.0], HP=[219.0], LP=[640.0], P=[778.0], size=[875]
Time = 31.347 seg
(Gen. 233) BestSol = Solution: cost=[-2147939.0], HP=[207.0], LP=[639.0], P=[773.0], size=[875]
Time = 34.31 seg
(Gen. 253) BestSol = Solution: cost=[-2068238.0], HP=[199.0], LP=[638.0], P=[776.0], size=[875]
Time = 37.278 seg
(Gen. 328) BestSol = Solution: cost=[-2037336.0], HP=[196.0], LP=[636.0], P=[767.0], size=[875]
Time = 48.216 seg
(Gen. 373) BestSol = Solution: cost=[-2029023.0], HP=[195.0], LP=[623.0], P=[784.0], size=[875]
Time = 54.819 seg
(Gen. 389) BestSol = Solution: cost=[-1988820.0], HP=[191.0], LP=[620.0], P=[782.0], size=[875]
Time = 57.197 seg
(Gen. 436) BestSol = Solution: cost=[-1949021.0], HP=[187.0], LP=[621.0], P=[784.0], size=[875]
Time = 64.02 seg
(Gen. 575) BestSol = Solution: cost=[-1888325.0], HP=[181.0], LP=[625.0], P=[777.0], size=[875]
Time = 84.541 seg
(Gen. 613) BestSol = Solution: cost=[-1868018.0], HP=[179.0], LP=[618.0], P=[774.0], size=[875]
Time = 90.049 seg
(Gen. 643) BestSol = Solution: cost=[-1857407.0], HP=[178.0], LP=[607.0], P=[768.0], size=[875]
Time = 94.531 seg
(Gen. 677) BestSol = Solution: cost=[-1847712.0], HP=[177.0], LP=[612.0], P=[771.0], size=[875]
Time = 99.478 seg
(Gen. 841) BestSol = Solution: cost=[-1847214.0], HP=[177.0], LP=[614.0], P=[766.0], size=[875]
Time = 123.277 seg
(Gen. 876) BestSol = Solution: cost=[-1797029.0], HP=[172.0], LP=[629.0], P=[764.0], size=[875]
Time = 128.409 seg
