(Gen. 0) BestSol = Solution: cost=[-1.243976E7], HP=[1233.0], LP=[1060.0], P=[1087.0], size=[1260]
(Gen. 1) BestSol = Solution: cost=[-1.2321297E7], HP=[1221.0], LP=[1097.0], P=[1102.0], size=[1260]
Time = 1.039 seg
(Gen. 3) BestSol = Solution: cost=[-1.2262368E7], HP=[1215.0], LP=[1068.0], P=[1113.0], size=[1260]
Time = 1.626 seg
(Gen. 13) BestSol = Solution: cost=[-1.2191665E7], HP=[1208.0], LP=[1065.0], P=[1106.0], size=[1260]
Time = 4.584 seg
(Gen. 17) BestSol = Solution: cost=[-1.2151481E7], HP=[1204.0], LP=[1081.0], P=[1104.0], size=[1260]
Time = 5.804 seg
(Gen. 41) BestSol = Solution: cost=[-1.2021407E7], HP=[1191.0], LP=[1107.0], P=[1103.0], size=[1260]
Time = 13.316 seg
(Gen. 46) BestSol = Solution: cost=[-1.1860267E7], HP=[1175.0], LP=[1067.0], P=[1092.0], size=[1260]
Time = 14.916 seg
(Gen. 71) BestSol = Solution: cost=[-1.1840423E7], HP=[1173.0], LP=[1023.0], P=[1094.0], size=[1260]
Time = 22.846 seg
(Gen. 133) BestSol = Solution: cost=[-1.1799659E7], HP=[1169.0], LP=[1059.0], P=[1086.0], size=[1260]
Time = 42.428 seg
(Gen. 286) BestSol = Solution: cost=[-1.1799578E7], HP=[1169.0], LP=[1078.0], P=[1085.0], size=[1260]
Time = 89.479 seg
(Gen. 298) BestSol = Solution: cost=[-1.1739566E7], HP=[1163.0], LP=[1066.0], P=[1085.0], size=[1260]
Time = 93.094 seg
(Gen. 311) BestSol = Solution: cost=[-1.1678846E7], HP=[1157.0], LP=[1046.0], P=[1078.0], size=[1260]
Time = 97.076 seg
(Gen. 425) BestSol = Solution: cost=[-1.1619617E7], HP=[1151.0], LP=[1017.0], P=[1086.0], size=[1260]
Time = 132.428 seg
(Gen. 561) BestSol = Solution: cost=[-1.1559948E7], HP=[1145.0], LP=[1048.0], P=[1089.0], size=[1260]
Time = 174.262 seg
(Gen. 725) BestSol = Solution: cost=[-1.155066E7], HP=[1144.0], LP=[1060.0], P=[1096.0], size=[1260]
Time = 224.378 seg
(Gen. 769) BestSol = Solution: cost=[-1.154064E7], HP=[1143.0], LP=[1040.0], P=[1096.0], size=[1260]
Time = 238.007 seg
(Gen. 804) BestSol = Solution: cost=[-1.1520308E7], HP=[1141.0], LP=[1008.0], P=[1093.0], size=[1260]
Time = 248.745 seg
(Gen. 812) BestSol = Solution: cost=[-1.1490412E7], HP=[1138.0], LP=[1012.0], P=[1094.0], size=[1260]
Time = 251.239 seg
(Gen. 842) BestSol = Solution: cost=[-1.1391052E7], HP=[1128.0], LP=[1052.0], P=[1100.0], size=[1260]
Time = 260.471 seg
(Gen. 903) BestSol = Solution: cost=[-1.1372052E7], HP=[1126.0], LP=[1052.0], P=[1110.0], size=[1260]
Time = 279.106 seg
(Gen. 997) BestSol = Solution: cost=[-1.1291961E7], HP=[1118.0], LP=[1061.0], P=[1109.0], size=[1260]
Time = 307.91 seg
